{
  "_note1": "KEEP THIS FILE! Check it into a version control system (VCS) like git.",
  "_note2": "ObjectBox manages crucial IDs for your object model. See docs for details.",
  "_note3": "If you have VCS merge conflicts, you must resolve them according to ObjectBox docs.",
  "entities": [
    {
      "id": "1:8203637349431781258",
      "lastPropertyId": "7:3529582895117957919",
      "name": "DownFile",
      "properties": [
        {
          "id": "1:7791564287715347607",
          "name": "sqlId",
          "type": 6,
          "flags": 1
        },
        {
          "id": "2:4751705170188357293",
          "name": "downLoadUrl",
          "type": 9
        },
        {
          "id": "3:5397669375070334433",
          "name": "downLoadPath",
          "type": 9
        },
        {
          "id": "4:5523194780317380728",
          "name": "filePath",
          "type": 9
        },
        {
          "id": "5:6650596600104800201",
          "name": "fileName",
          "type": 9
        },
        {
          "id": "6:391978925464339529",
          "name": "path",
          "type": 9
        },
        {
          "id": "7:3529582895117957919",
          "name": "progress",
          "type": 5
        }
      ],
      "relations": []
    }
  ],
  "lastEntityId": "1:8203637349431781258",
  "lastIndexId": "0:0",
  "lastRelationId": "0:0",
  "lastSequenceId": "0:0",
  "modelVersion": 5,
  "modelVersionParserMinimum": 5,
  "retiredEntityUids": [],
  "retiredIndexUids": [],
  "retiredPropertyUids": [],
  "retiredRelationUids": [],
  "version": 1
}